Vignette • ROhdsiWebApi
…
WebApi configurations and ROhdsiWebApi

To successfully use ROhdsiWebApi, it is necessary to have an active ‘WebApi’ endpoint with a known baseUrl such as “http://server.org:80/WebAPI”. ‘WebApi’ has many functional categories.

To ensure reproducibility of work it is best to know the version of the WebApi (i.e. Atlas backend) being used. An easy way to do that is (and output maybe included in your study results)

version <- ROhdsiWebApi:::getWebApiVersion(baseUrl = baseUrl)
message1 <- paste0('This Vignette was created using WebApi version: ', version, ' on baseUrl: ', baseUrl, ". The CDM had the following source data configured: ")
cdmSources <- ROhdsiWebApi::getCdmSources(baseUrl = baseUrl)
priorityVocabulary <- ROhdsiWebApi::getPriorityVocabularyKey(baseUrl = baseUrl)

The object version will show your webApi version. Example: This Vignette was created using WebApi version: 2.8.0 on baseUrl: https://epi.jnj.com:8443/WebAPI. The CDM had the following source data configured: .

cdmSources
#> # A tibble: 40 x 7
#>    sourceId sourceName sourceKey sourceDialect cdmDatabaseSche~ vocabDatabaseSc~
#>       <int> <chr>      <chr>     <chr>         <chr>            <chr>           
#>  1      254 CPRD ACE ~ CDM_CPRD~ pdw           CDM_CPRD_ACE_AR~ CDM_CPRD_ACE_AR~
#>  2      228 CPRD (v11~ CDM_CPRD~ pdw           CDM_CPRD_V1102.~ CDM_CPRD_V1102.~
#>  3      255 CPRD COVI~ CDM_CPRD~ pdw           CDM_CPRD_v1226.~ CDM_CPRD_v1226.~
#>  4      172 HCUP (v86~ CDM_HCUP~ pdw           CDM_HCUP_V869.d~ CDM_HCUP_V869.d~
#>  5      229 IBM CCAE ~ CDM_IBM_~ pdw           CDM_IBM_CCAE_V1~ CDM_IBM_CCAE_V1~
#>  6      238 IBM CCAE ~ CDM_IBM_~ pdw           CDM_IBM_CCAE_V1~ CDM_IBM_CCAE_V1~
#>  7      231 IBM MDCD ~ CDM_IBM_~ pdw           CDM_IBM_MDCD_V1~ CDM_IBM_MDCD_V1~
#>  8      230 IBM MDCR ~ CDM_IBM_~ pdw           CDM_IBM_MDCR_V1~ CDM_IBM_MDCR_V1~
#>  9      239 IBM MDCR ~ CDM_IBM_~ pdw           CDM_IBM_MDCR_V1~ CDM_IBM_MDCR_V1~
#> 10      162 Iqvia Aus~ CDM_IQVI~ pdw           CDM_IQVIA_AUSTR~ CDM_IQVIA_AUSTR~
#> # ... with 30 more rows, and 1 more variable: resultsDatabaseSchema <chr>
…
